



<!DOCTYPE html>
<html lang="en" class=" is-copy-enabled is-u2f-enabled">
  <head prefix="og: http://ogp.me/ns# fb: http://ogp.me/ns/fb# object: http://ogp.me/ns/object# article: http://ogp.me/ns/article# profile: http://ogp.me/ns/profile#">
    <meta charset='utf-8'>
    

    <link crossorigin="anonymous" href="https://assets-cdn.github.com/assets/frameworks-130b94ff796a9660d814b59665547ebaf99cc439323c908f41c6ff46e4255c8e.css" integrity="sha256-EwuU/3lqlmDYFLWWZVR+uvmcxDkyPJCPQcb/RuQlXI4=" media="all" rel="stylesheet" />
    <link crossorigin="anonymous" href="https://assets-cdn.github.com/assets/github-907704789dc9e0c1cd78c2f3adfc91e42ed23a0a97b2790c4171d9d8959f7cdc.css" integrity="sha256-kHcEeJ3J4MHNeMLzrfyR5C7SOgqXsnkMQXHZ2JWffNw=" media="all" rel="stylesheet" />
    
    
    <link crossorigin="anonymous" href="https://assets-cdn.github.com/assets/site-becbb68a5e0ae3f94214b9e9edea2c49974f6d60b9eae715b70e5d017ff1b935.css" integrity="sha256-vsu2il4K4/lCFLnp7eosSZdPbWC56ucVtw5dAX/xuTU=" media="all" rel="stylesheet" />
    

    <link as="script" href="https://assets-cdn.github.com/assets/frameworks-74e2880351ce368d8f0a52f12a7452b422bef6397d5477d8120207ea79f0dfd9.js" rel="preload" />
    
    <link as="script" href="https://assets-cdn.github.com/assets/github-2a591b51a4438c7a3e39b82d3119de5d8894bf09aeb9148fc057632c7a2aca9f.js" rel="preload" />

    <meta http-equiv="X-UA-Compatible" content="IE=edge">
    <meta http-equiv="Content-Language" content="en">
    <meta name="viewport" content="width=device-width">
    
    <title>libgdx/default.fnt at master · libgdx/libgdx · GitHub</title>
    <link rel="search" type="application/opensearchdescription+xml" href="/opensearch.xml" title="GitHub">
    <link rel="fluid-icon" href="https://github.com/fluidicon.png" title="GitHub">
    <link rel="apple-touch-icon" href="/apple-touch-icon.png">
    <link rel="apple-touch-icon" sizes="57x57" href="/apple-touch-icon-57x57.png">
    <link rel="apple-touch-icon" sizes="60x60" href="/apple-touch-icon-60x60.png">
    <link rel="apple-touch-icon" sizes="72x72" href="/apple-touch-icon-72x72.png">
    <link rel="apple-touch-icon" sizes="76x76" href="/apple-touch-icon-76x76.png">
    <link rel="apple-touch-icon" sizes="114x114" href="/apple-touch-icon-114x114.png">
    <link rel="apple-touch-icon" sizes="120x120" href="/apple-touch-icon-120x120.png">
    <link rel="apple-touch-icon" sizes="144x144" href="/apple-touch-icon-144x144.png">
    <link rel="apple-touch-icon" sizes="152x152" href="/apple-touch-icon-152x152.png">
    <link rel="apple-touch-icon" sizes="180x180" href="/apple-touch-icon-180x180.png">
    <meta property="fb:app_id" content="1401488693436528">

      <meta content="https://avatars2.githubusercontent.com/u/509841?v=3&amp;s=400" name="twitter:image:src" /><meta content="@github" name="twitter:site" /><meta content="summary" name="twitter:card" /><meta content="libgdx/libgdx" name="twitter:title" /><meta content="libgdx - Desktop/Android/HTML5/iOS Java game development framework" name="twitter:description" />
      <meta content="https://avatars2.githubusercontent.com/u/509841?v=3&amp;s=400" property="og:image" /><meta content="GitHub" property="og:site_name" /><meta content="object" property="og:type" /><meta content="libgdx/libgdx" property="og:title" /><meta content="https://github.com/libgdx/libgdx" property="og:url" /><meta content="libgdx - Desktop/Android/HTML5/iOS Java game development framework" property="og:description" />
      <meta name="browser-stats-url" content="https://api.github.com/_private/browser/stats">
    <meta name="browser-errors-url" content="https://api.github.com/_private/browser/errors">
    <link rel="assets" href="https://assets-cdn.github.com/">
    
    <meta name="pjax-timeout" content="1000">
    
    <meta name="request-id" content="7A25121B:3D6F:1306F993:57C41827" data-pjax-transient>

    <meta name="msapplication-TileImage" content="/windows-tile.png">
    <meta name="msapplication-TileColor" content="#ffffff">
    <meta name="selected-link" value="repo_source" data-pjax-transient>

    <meta name="google-site-verification" content="KT5gs8h0wvaagLKAVWq8bbeNwnZZK1r1XQysX3xurLU">
<meta name="google-site-verification" content="ZzhVyEFwb7w3e0-uOTltm8Jsck2F5StVihD0exw2fsA">
    <meta name="google-analytics" content="UA-3769691-2">

<meta content="collector.githubapp.com" name="octolytics-host" /><meta content="github" name="octolytics-app-id" /><meta content="7A25121B:3D6F:1306F993:57C41827" name="octolytics-dimension-request_id" />
<meta content="/&lt;user-name&gt;/&lt;repo-name&gt;/blob/show" data-pjax-transient="true" name="analytics-location" />



  <meta class="js-ga-set" name="dimension1" content="Logged Out">



        <meta name="hostname" content="github.com">
    <meta name="user-login" content="">

        <meta name="expected-hostname" content="github.com">
      <meta name="js-proxy-site-detection-payload" content="NGUzY2JmMmI2OGY2MjM2NjkzNDJjZDJkYjY0YmUxZWIwYTExOTZhYmRmMjllY2M0NjMyNTJhMjU5MmVjZjMzNHx7InJlbW90ZV9hZGRyZXNzIjoiMTIyLjM3LjE4LjI3IiwicmVxdWVzdF9pZCI6IjdBMjUxMjFCOjNENkY6MTMwNkY5OTM6NTdDNDE4MjciLCJ0aW1lc3RhbXAiOjE0NzI0NjkwNDB9">


      <link rel="mask-icon" href="https://assets-cdn.github.com/pinned-octocat.svg" color="#4078c0">
      <link rel="icon" type="image/x-icon" href="https://assets-cdn.github.com/favicon.ico">

    <meta name="html-safe-nonce" content="1d156f1985b36a7a1758472e2bc704746c11f9be">
    <meta content="65be3a71a8c861878a7d3b9faf0f0f9f1e221707" name="form-nonce" />

    <meta http-equiv="x-pjax-version" content="8c57ae2406b1076c4bddfbcd9b742e31">
    

      
  <meta name="description" content="libgdx - Desktop/Android/HTML5/iOS Java game development framework">
  <meta name="go-import" content="github.com/libgdx/libgdx git https://github.com/libgdx/libgdx.git">

  <meta content="509841" name="octolytics-dimension-user_id" /><meta content="libgdx" name="octolytics-dimension-user_login" /><meta content="5373551" name="octolytics-dimension-repository_id" /><meta content="libgdx/libgdx" name="octolytics-dimension-repository_nwo" /><meta content="true" name="octolytics-dimension-repository_public" /><meta content="false" name="octolytics-dimension-repository_is_fork" /><meta content="5373551" name="octolytics-dimension-repository_network_root_id" /><meta content="libgdx/libgdx" name="octolytics-dimension-repository_network_root_nwo" />
  <link href="https://github.com/libgdx/libgdx/commits/master.atom" rel="alternate" title="Recent Commits to libgdx:master" type="application/atom+xml">


      <link rel="canonical" href="https://github.com/libgdx/libgdx/blob/master/tests/gdx-tests-android/assets/data/default.fnt" data-pjax-transient>
  </head>


  <body class="logged-out  env-production windows vis-public page-blob">
    <div id="js-pjax-loader-bar" class="pjax-loader-bar"><div class="progress"></div></div>
    <a href="#start-of-content" tabindex="1" class="accessibility-aid js-skip-to-content">Skip to content</a>

    
    
    



          <header class="site-header js-details-container" role="banner">
  <div class="container-responsive">
    <a class="header-logo-invertocat" href="https://github.com/" aria-label="Homepage" data-ga-click="(Logged out) Header, go to homepage, icon:logo-wordmark">
      <svg aria-hidden="true" class="octicon octicon-mark-github" height="32" version="1.1" viewBox="0 0 16 16" width="32"><path d="M8 0C3.58 0 0 3.58 0 8c0 3.54 2.29 6.53 5.47 7.59.4.07.55-.17.55-.38 0-.19-.01-.82-.01-1.49-2.01.37-2.53-.49-2.69-.94-.09-.23-.48-.94-.82-1.13-.28-.15-.68-.52-.01-.53.63-.01 1.08.58 1.23.82.72 1.21 1.87.87 2.33.66.07-.52.28-.87.51-1.07-1.78-.2-3.64-.89-3.64-3.95 0-.87.31-1.59.82-2.15-.08-.2-.36-1.02.08-2.12 0 0 .67-.21 2.2.82.64-.18 1.32-.27 2-.27.68 0 1.36.09 2 .27 1.53-1.04 2.2-.82 2.2-.82.44 1.1.16 1.92.08 2.12.51.56.82 1.27.82 2.15 0 3.07-1.87 3.75-3.65 3.95.29.25.54.73.54 1.48 0 1.07-.01 1.93-.01 2.2 0 .21.15.46.55.38A8.013 8.013 0 0 0 16 8c0-4.42-3.58-8-8-8z"></path></svg>
    </a>

    <button class="btn-link float-right site-header-toggle js-details-target" type="button" aria-label="Toggle navigation">
      <svg aria-hidden="true" class="octicon octicon-three-bars" height="24" version="1.1" viewBox="0 0 12 16" width="18"><path d="M11.41 9H.59C0 9 0 8.59 0 8c0-.59 0-1 .59-1H11.4c.59 0 .59.41.59 1 0 .59 0 1-.59 1h.01zm0-4H.59C0 5 0 4.59 0 4c0-.59 0-1 .59-1H11.4c.59 0 .59.41.59 1 0 .59 0 1-.59 1h.01zM.59 11H11.4c.59 0 .59.41.59 1 0 .59 0 1-.59 1H.59C0 13 0 12.59 0 12c0-.59 0-1 .59-1z"></path></svg>
    </button>

    <div class="site-header-menu">
      <nav class="site-header-nav site-header-nav-main">
        <a href="/personal" class="js-selected-navigation-item nav-item nav-item-personal" data-ga-click="Header, click, Nav menu - item:personal" data-selected-links="/personal /personal">
          Personal
</a>        <a href="/open-source" class="js-selected-navigation-item nav-item nav-item-opensource" data-ga-click="Header, click, Nav menu - item:opensource" data-selected-links="/open-source /open-source">
          Open source
</a>        <a href="/business" class="js-selected-navigation-item nav-item nav-item-business" data-ga-click="Header, click, Nav menu - item:business" data-selected-links="/business /business/partners /business/features /business/customers /business">
          Business
</a>        <a href="/explore" class="js-selected-navigation-item nav-item nav-item-explore" data-ga-click="Header, click, Nav menu - item:explore" data-selected-links="/explore /trending /trending/developers /integrations /integrations/feature/code /integrations/feature/collaborate /integrations/feature/ship /explore">
          Explore
</a>      </nav>

      <div class="site-header-actions">
            <a class="btn btn-primary site-header-actions-btn" href="/join?source=header-repo" data-ga-click="(Logged out) Header, clicked Sign up, text:sign-up">Sign up</a>
          <a class="btn site-header-actions-btn mr-2" href="/login?return_to=%2Flibgdx%2Flibgdx%2Fblob%2Fmaster%2Ftests%2Fgdx-tests-android%2Fassets%2Fdata%2Fdefault.fnt" data-ga-click="(Logged out) Header, clicked Sign in, text:sign-in">Sign in</a>
      </div>

        <nav class="site-header-nav site-header-nav-secondary">
          <a class="nav-item" href="/pricing">Pricing</a>
          <a class="nav-item" href="/blog">Blog</a>
          <a class="nav-item" href="https://help.github.com">Support</a>
          <a class="nav-item header-search-link" href="https://github.com/search">Search GitHub</a>
              <div class="header-search scoped-search site-scoped-search js-site-search" role="search">
  <!-- </textarea> --><!-- '"` --><form accept-charset="UTF-8" action="/libgdx/libgdx/search" class="js-site-search-form" data-scoped-search-url="/libgdx/libgdx/search" data-unscoped-search-url="/search" method="get"><div style="margin:0;padding:0;display:inline"><input name="utf8" type="hidden" value="&#x2713;" /></div>
    <label class="form-control header-search-wrapper js-chromeless-input-container">
      <div class="header-search-scope">This repository</div>
      <input type="text"
        class="form-control header-search-input js-site-search-focus js-site-search-field is-clearable"
        data-hotkey="s"
        name="q"
        placeholder="Search"
        aria-label="Search this repository"
        data-unscoped-placeholder="Search GitHub"
        data-scoped-placeholder="Search"
        autocapitalize="off">
    </label>
</form></div>

        </nav>
    </div>
  </div>
</header>



    <div id="start-of-content" class="accessibility-aid"></div>

      <div id="js-flash-container">
</div>


    <div role="main">
        <div itemscope itemtype="http://schema.org/SoftwareSourceCode">
    <div id="js-repo-pjax-container" data-pjax-container>
      
<div class="pagehead repohead instapaper_ignore readability-menu experiment-repo-nav">
  <div class="container repohead-details-container">

    

<ul class="pagehead-actions">

  <li>
      <a href="/login?return_to=%2Flibgdx%2Flibgdx"
    class="btn btn-sm btn-with-count tooltipped tooltipped-n"
    aria-label="You must be signed in to watch a repository" rel="nofollow">
    <svg aria-hidden="true" class="octicon octicon-eye" height="16" version="1.1" viewBox="0 0 16 16" width="16"><path d="M8.06 2C3 2 0 8 0 8s3 6 8.06 6C13 14 16 8 16 8s-3-6-7.94-6zM8 12c-2.2 0-4-1.78-4-4 0-2.2 1.8-4 4-4 2.22 0 4 1.8 4 4 0 2.22-1.78 4-4 4zm2-4c0 1.11-.89 2-2 2-1.11 0-2-.89-2-2 0-1.11.89-2 2-2 1.11 0 2 .89 2 2z"></path></svg>
    Watch
  </a>
  <a class="social-count" href="/libgdx/libgdx/watchers"
     aria-label="1100 users are watching this repository">
    1,100
  </a>

  </li>

  <li>
      <a href="/login?return_to=%2Flibgdx%2Flibgdx"
    class="btn btn-sm btn-with-count tooltipped tooltipped-n"
    aria-label="You must be signed in to star a repository" rel="nofollow">
    <svg aria-hidden="true" class="octicon octicon-star" height="16" version="1.1" viewBox="0 0 14 16" width="14"><path d="M14 6l-4.9-.64L7 1 4.9 5.36 0 6l3.6 3.26L2.67 14 7 11.67 11.33 14l-.93-4.74z"></path></svg>
    Star
  </a>

    <a class="social-count js-social-count" href="/libgdx/libgdx/stargazers"
      aria-label="9487 users starred this repository">
      9,487
    </a>

  </li>

  <li>
      <a href="/login?return_to=%2Flibgdx%2Flibgdx"
        class="btn btn-sm btn-with-count tooltipped tooltipped-n"
        aria-label="You must be signed in to fork a repository" rel="nofollow">
        <svg aria-hidden="true" class="octicon octicon-repo-forked" height="16" version="1.1" viewBox="0 0 10 16" width="10"><path d="M8 1a1.993 1.993 0 0 0-1 3.72V6L5 8 3 6V4.72A1.993 1.993 0 0 0 2 1a1.993 1.993 0 0 0-1 3.72V6.5l3 3v1.78A1.993 1.993 0 0 0 5 15a1.993 1.993 0 0 0 1-3.72V9.5l3-3V4.72A1.993 1.993 0 0 0 8 1zM2 4.2C1.34 4.2.8 3.65.8 3c0-.65.55-1.2 1.2-1.2.65 0 1.2.55 1.2 1.2 0 .65-.55 1.2-1.2 1.2zm3 10c-.66 0-1.2-.55-1.2-1.2 0-.65.55-1.2 1.2-1.2.65 0 1.2.55 1.2 1.2 0 .65-.55 1.2-1.2 1.2zm3-10c-.66 0-1.2-.55-1.2-1.2 0-.65.55-1.2 1.2-1.2.65 0 1.2.55 1.2 1.2 0 .65-.55 1.2-1.2 1.2z"></path></svg>
        Fork
      </a>

    <a href="/libgdx/libgdx/network" class="social-count"
       aria-label="4780 users are forked this repository">
      4,780
    </a>
  </li>
</ul>

    <h1 class="public ">
  <svg aria-hidden="true" class="octicon octicon-repo" height="16" version="1.1" viewBox="0 0 12 16" width="12"><path d="M4 9H3V8h1v1zm0-3H3v1h1V6zm0-2H3v1h1V4zm0-2H3v1h1V2zm8-1v12c0 .55-.45 1-1 1H6v2l-1.5-1.5L3 16v-2H1c-.55 0-1-.45-1-1V1c0-.55.45-1 1-1h10c.55 0 1 .45 1 1zm-1 10H1v2h2v-1h3v1h5v-2zm0-10H2v9h9V1z"></path></svg>
  <span class="author" itemprop="author"><a href="/libgdx" class="url fn" rel="author">libgdx</a></span><!--
--><span class="path-divider">/</span><!--
--><strong itemprop="name"><a href="/libgdx/libgdx" data-pjax="#js-repo-pjax-container">libgdx</a></strong>

</h1>

  </div>
  <div class="container">
    
<nav class="reponav js-repo-nav js-sidenav-container-pjax"
     itemscope
     itemtype="http://schema.org/BreadcrumbList"
     role="navigation"
     data-pjax="#js-repo-pjax-container">

  <span itemscope itemtype="http://schema.org/ListItem" itemprop="itemListElement">
    <a href="/libgdx/libgdx" aria-selected="true" class="js-selected-navigation-item selected reponav-item" data-hotkey="g c" data-selected-links="repo_source repo_downloads repo_commits repo_releases repo_tags repo_branches /libgdx/libgdx" itemprop="url">
      <svg aria-hidden="true" class="octicon octicon-code" height="16" version="1.1" viewBox="0 0 14 16" width="14"><path d="M9.5 3L8 4.5 11.5 8 8 11.5 9.5 13 14 8 9.5 3zm-5 0L0 8l4.5 5L6 11.5 2.5 8 6 4.5 4.5 3z"></path></svg>
      <span itemprop="name">Code</span>
      <meta itemprop="position" content="1">
</a>  </span>

    <span itemscope itemtype="http://schema.org/ListItem" itemprop="itemListElement">
      <a href="/libgdx/libgdx/issues" class="js-selected-navigation-item reponav-item" data-hotkey="g i" data-selected-links="repo_issues repo_labels repo_milestones /libgdx/libgdx/issues" itemprop="url">
        <svg aria-hidden="true" class="octicon octicon-issue-opened" height="16" version="1.1" viewBox="0 0 14 16" width="14"><path d="M7 2.3c3.14 0 5.7 2.56 5.7 5.7s-2.56 5.7-5.7 5.7A5.71 5.71 0 0 1 1.3 8c0-3.14 2.56-5.7 5.7-5.7zM7 1C3.14 1 0 4.14 0 8s3.14 7 7 7 7-3.14 7-7-3.14-7-7-7zm1 3H6v5h2V4zm0 6H6v2h2v-2z"></path></svg>
        <span itemprop="name">Issues</span>
        <span class="counter">169</span>
        <meta itemprop="position" content="2">
</a>    </span>

  <span itemscope itemtype="http://schema.org/ListItem" itemprop="itemListElement">
    <a href="/libgdx/libgdx/pulls" class="js-selected-navigation-item reponav-item" data-hotkey="g p" data-selected-links="repo_pulls /libgdx/libgdx/pulls" itemprop="url">
      <svg aria-hidden="true" class="octicon octicon-git-pull-request" height="16" version="1.1" viewBox="0 0 12 16" width="12"><path d="M11 11.28V5c-.03-.78-.34-1.47-.94-2.06C9.46 2.35 8.78 2.03 8 2H7V0L4 3l3 3V4h1c.27.02.48.11.69.31.21.2.3.42.31.69v6.28A1.993 1.993 0 0 0 10 15a1.993 1.993 0 0 0 1-3.72zm-1 2.92c-.66 0-1.2-.55-1.2-1.2 0-.65.55-1.2 1.2-1.2.65 0 1.2.55 1.2 1.2 0 .65-.55 1.2-1.2 1.2zM4 3c0-1.11-.89-2-2-2a1.993 1.993 0 0 0-1 3.72v6.56A1.993 1.993 0 0 0 2 15a1.993 1.993 0 0 0 1-3.72V4.72c.59-.34 1-.98 1-1.72zm-.8 10c0 .66-.55 1.2-1.2 1.2-.65 0-1.2-.55-1.2-1.2 0-.65.55-1.2 1.2-1.2.65 0 1.2.55 1.2 1.2zM2 4.2C1.34 4.2.8 3.65.8 3c0-.65.55-1.2 1.2-1.2.65 0 1.2.55 1.2 1.2 0 .65-.55 1.2-1.2 1.2z"></path></svg>
      <span itemprop="name">Pull requests</span>
      <span class="counter">38</span>
      <meta itemprop="position" content="3">
</a>  </span>


    <a href="/libgdx/libgdx/wiki" class="js-selected-navigation-item reponav-item" data-hotkey="g w" data-selected-links="repo_wiki /libgdx/libgdx/wiki">
      <svg aria-hidden="true" class="octicon octicon-book" height="16" version="1.1" viewBox="0 0 16 16" width="16"><path d="M3 5h4v1H3V5zm0 3h4V7H3v1zm0 2h4V9H3v1zm11-5h-4v1h4V5zm0 2h-4v1h4V7zm0 2h-4v1h4V9zm2-6v9c0 .55-.45 1-1 1H9.5l-1 1-1-1H2c-.55 0-1-.45-1-1V3c0-.55.45-1 1-1h5.5l1 1 1-1H15c.55 0 1 .45 1 1zm-8 .5L7.5 3H2v9h6V3.5zm7-.5H9.5l-.5.5V12h6V3z"></path></svg>
      Wiki
</a>

  <a href="/libgdx/libgdx/pulse" class="js-selected-navigation-item reponav-item" data-selected-links="pulse /libgdx/libgdx/pulse">
    <svg aria-hidden="true" class="octicon octicon-pulse" height="16" version="1.1" viewBox="0 0 14 16" width="14"><path d="M11.5 8L8.8 5.4 6.6 8.5 5.5 1.6 2.38 8H0v2h3.6l.9-1.8.9 5.4L9 8.5l1.6 1.5H14V8z"></path></svg>
    Pulse
</a>
  <a href="/libgdx/libgdx/graphs" class="js-selected-navigation-item reponav-item" data-selected-links="repo_graphs repo_contributors /libgdx/libgdx/graphs">
    <svg aria-hidden="true" class="octicon octicon-graph" height="16" version="1.1" viewBox="0 0 16 16" width="16"><path d="M16 14v1H0V0h1v14h15zM5 13H3V8h2v5zm4 0H7V3h2v10zm4 0h-2V6h2v7z"></path></svg>
    Graphs
</a>

</nav>

  </div>
</div>

<div class="container new-discussion-timeline experiment-repo-nav">
  <div class="repository-content">

    

<a href="/libgdx/libgdx/blob/331d368a6a7008d68c0791e103d53ba0676e946f/tests/gdx-tests-android/assets/data/default.fnt" class="d-none js-permalink-shortcut" data-hotkey="y">Permalink</a>

<!-- blob contrib key: blob_contributors:v21:616c72b30725c4e39fa6fc80539d04e1 -->

<div class="file-navigation js-zeroclipboard-container">
  
<div class="select-menu branch-select-menu js-menu-container js-select-menu float-left">
  <button class="btn btn-sm select-menu-button js-menu-target css-truncate" data-hotkey="w"
    
    type="button" aria-label="Switch branches or tags" tabindex="0" aria-haspopup="true">
    <i>Branch:</i>
    <span class="js-select-button css-truncate-target">master</span>
  </button>

  <div class="select-menu-modal-holder js-menu-content js-navigation-container" data-pjax aria-hidden="true">

    <div class="select-menu-modal">
      <div class="select-menu-header">
        <svg aria-label="Close" class="octicon octicon-x js-menu-close" height="16" role="img" version="1.1" viewBox="0 0 12 16" width="12"><path d="M7.48 8l3.75 3.75-1.48 1.48L6 9.48l-3.75 3.75-1.48-1.48L4.52 8 .77 4.25l1.48-1.48L6 6.52l3.75-3.75 1.48 1.48z"></path></svg>
        <span class="select-menu-title">Switch branches/tags</span>
      </div>

      <div class="select-menu-filters">
        <div class="select-menu-text-filter">
          <input type="text" aria-label="Filter branches/tags" id="context-commitish-filter-field" class="form-control js-filterable-field js-navigation-enable" placeholder="Filter branches/tags">
        </div>
        <div class="select-menu-tabs">
          <ul>
            <li class="select-menu-tab">
              <a href="#" data-tab-filter="branches" data-filter-placeholder="Filter branches/tags" class="js-select-menu-tab" role="tab">Branches</a>
            </li>
            <li class="select-menu-tab">
              <a href="#" data-tab-filter="tags" data-filter-placeholder="Find a tag…" class="js-select-menu-tab" role="tab">Tags</a>
            </li>
          </ul>
        </div>
      </div>

      <div class="select-menu-list select-menu-tab-bucket js-select-menu-tab-bucket" data-tab-filter="branches" role="menu">

        <div data-filterable-for="context-commitish-filter-field" data-filterable-type="substring">


            <a class="select-menu-item js-navigation-item js-navigation-open "
               href="/libgdx/libgdx/blob/lwjgl3/tests/gdx-tests-android/assets/data/default.fnt"
               data-name="lwjgl3"
               data-skip-pjax="true"
               rel="nofollow">
              <svg aria-hidden="true" class="octicon octicon-check select-menu-item-icon" height="16" version="1.1" viewBox="0 0 12 16" width="12"><path d="M12 5l-8 8-4-4 1.5-1.5L4 10l6.5-6.5z"></path></svg>
              <span class="select-menu-item-text css-truncate-target js-select-menu-filter-text">
                lwjgl3
              </span>
            </a>
            <a class="select-menu-item js-navigation-item js-navigation-open selected"
               href="/libgdx/libgdx/blob/master/tests/gdx-tests-android/assets/data/default.fnt"
               data-name="master"
               data-skip-pjax="true"
               rel="nofollow">
              <svg aria-hidden="true" class="octicon octicon-check select-menu-item-icon" height="16" version="1.1" viewBox="0 0 12 16" width="12"><path d="M12 5l-8 8-4-4 1.5-1.5L4 10l6.5-6.5z"></path></svg>
              <span class="select-menu-item-text css-truncate-target js-select-menu-filter-text">
                master
              </span>
            </a>
            <a class="select-menu-item js-navigation-item js-navigation-open "
               href="/libgdx/libgdx/blob/newspritebatch/tests/gdx-tests-android/assets/data/default.fnt"
               data-name="newspritebatch"
               data-skip-pjax="true"
               rel="nofollow">
              <svg aria-hidden="true" class="octicon octicon-check select-menu-item-icon" height="16" version="1.1" viewBox="0 0 12 16" width="12"><path d="M12 5l-8 8-4-4 1.5-1.5L4 10l6.5-6.5z"></path></svg>
              <span class="select-menu-item-text css-truncate-target js-select-menu-filter-text">
                newspritebatch
              </span>
            </a>
            <a class="select-menu-item js-navigation-item js-navigation-open "
               href="/libgdx/libgdx/blob/revert-3802-camera_helper/tests/gdx-tests-android/assets/data/default.fnt"
               data-name="revert-3802-camera_helper"
               data-skip-pjax="true"
               rel="nofollow">
              <svg aria-hidden="true" class="octicon octicon-check select-menu-item-icon" height="16" version="1.1" viewBox="0 0 12 16" width="12"><path d="M12 5l-8 8-4-4 1.5-1.5L4 10l6.5-6.5z"></path></svg>
              <span class="select-menu-item-text css-truncate-target js-select-menu-filter-text">
                revert-3802-camera_helper
              </span>
            </a>
            <a class="select-menu-item js-navigation-item js-navigation-open "
               href="/libgdx/libgdx/blob/revert-3903-patch-1/tests/gdx-tests-android/assets/data/default.fnt"
               data-name="revert-3903-patch-1"
               data-skip-pjax="true"
               rel="nofollow">
              <svg aria-hidden="true" class="octicon octicon-check select-menu-item-icon" height="16" version="1.1" viewBox="0 0 12 16" width="12"><path d="M12 5l-8 8-4-4 1.5-1.5L4 10l6.5-6.5z"></path></svg>
              <span class="select-menu-item-text css-truncate-target js-select-menu-filter-text">
                revert-3903-patch-1
              </span>
            </a>
        </div>

          <div class="select-menu-no-results">Nothing to show</div>
      </div>

      <div class="select-menu-list select-menu-tab-bucket js-select-menu-tab-bucket" data-tab-filter="tags">
        <div data-filterable-for="context-commitish-filter-field" data-filterable-type="substring">


            <a class="select-menu-item js-navigation-item js-navigation-open "
              href="/libgdx/libgdx/tree/gdx-parent-1.5.0/tests/gdx-tests-android/assets/data/default.fnt"
              data-name="gdx-parent-1.5.0"
              data-skip-pjax="true"
              rel="nofollow">
              <svg aria-hidden="true" class="octicon octicon-check select-menu-item-icon" height="16" version="1.1" viewBox="0 0 12 16" width="12"><path d="M12 5l-8 8-4-4 1.5-1.5L4 10l6.5-6.5z"></path></svg>
              <span class="select-menu-item-text css-truncate-target" title="gdx-parent-1.5.0">
                gdx-parent-1.5.0
              </span>
            </a>
            <a class="select-menu-item js-navigation-item js-navigation-open "
              href="/libgdx/libgdx/tree/gdx-parent-1.2.0/tests/gdx-tests-android/assets/data/default.fnt"
              data-name="gdx-parent-1.2.0"
              data-skip-pjax="true"
              rel="nofollow">
              <svg aria-hidden="true" class="octicon octicon-check select-menu-item-icon" height="16" version="1.1" viewBox="0 0 12 16" width="12"><path d="M12 5l-8 8-4-4 1.5-1.5L4 10l6.5-6.5z"></path></svg>
              <span class="select-menu-item-text css-truncate-target" title="gdx-parent-1.2.0">
                gdx-parent-1.2.0
              </span>
            </a>
            <a class="select-menu-item js-navigation-item js-navigation-open "
              href="/libgdx/libgdx/tree/1.9.4/tests/gdx-tests-android/assets/data/default.fnt"
              data-name="1.9.4"
              data-skip-pjax="true"
              rel="nofollow">
              <svg aria-hidden="true" class="octicon octicon-check select-menu-item-icon" height="16" version="1.1" viewBox="0 0 12 16" width="12"><path d="M12 5l-8 8-4-4 1.5-1.5L4 10l6.5-6.5z"></path></svg>
              <span class="select-menu-item-text css-truncate-target" title="1.9.4">
                1.9.4
              </span>
            </a>
            <a class="select-menu-item js-navigation-item js-navigation-open "
              href="/libgdx/libgdx/tree/1.9.3/tests/gdx-tests-android/assets/data/default.fnt"
              data-name="1.9.3"
              data-skip-pjax="true"
              rel="nofollow">
              <svg aria-hidden="true" class="octicon octicon-check select-menu-item-icon" height="16" version="1.1" viewBox="0 0 12 16" width="12"><path d="M12 5l-8 8-4-4 1.5-1.5L4 10l6.5-6.5z"></path></svg>
              <span class="select-menu-item-text css-truncate-target" title="1.9.3">
                1.9.3
              </span>
            </a>
            <a class="select-menu-item js-navigation-item js-navigation-open "
              href="/libgdx/libgdx/tree/1.9.2/tests/gdx-tests-android/assets/data/default.fnt"
              data-name="1.9.2"
              data-skip-pjax="true"
              rel="nofollow">
              <svg aria-hidden="true" class="octicon octicon-check select-menu-item-icon" height="16" version="1.1" viewBox="0 0 12 16" width="12"><path d="M12 5l-8 8-4-4 1.5-1.5L4 10l6.5-6.5z"></path></svg>
              <span class="select-menu-item-text css-truncate-target" title="1.9.2">
                1.9.2
              </span>
            </a>
            <a class="select-menu-item js-navigation-item js-navigation-open "
              href="/libgdx/libgdx/tree/1.9.1/tests/gdx-tests-android/assets/data/default.fnt"
              data-name="1.9.1"
              data-skip-pjax="true"
              rel="nofollow">
              <svg aria-hidden="true" class="octicon octicon-check select-menu-item-icon" height="16" version="1.1" viewBox="0 0 12 16" width="12"><path d="M12 5l-8 8-4-4 1.5-1.5L4 10l6.5-6.5z"></path></svg>
              <span class="select-menu-item-text css-truncate-target" title="1.9.1">
                1.9.1
              </span>
            </a>
            <a class="select-menu-item js-navigation-item js-navigation-open "
              href="/libgdx/libgdx/tree/1.9.0/tests/gdx-tests-android/assets/data/default.fnt"
              data-name="1.9.0"
              data-skip-pjax="true"
              rel="nofollow">
              <svg aria-hidden="true" class="octicon octicon-check select-menu-item-icon" height="16" version="1.1" viewBox="0 0 12 16" width="12"><path d="M12 5l-8 8-4-4 1.5-1.5L4 10l6.5-6.5z"></path></svg>
              <span class="select-menu-item-text css-truncate-target" title="1.9.0">
                1.9.0
              </span>
            </a>
            <a class="select-menu-item js-navigation-item js-navigation-open "
              href="/libgdx/libgdx/tree/1.8.0/tests/gdx-tests-android/assets/data/default.fnt"
              data-name="1.8.0"
              data-skip-pjax="true"
              rel="nofollow">
              <svg aria-hidden="true" class="octicon octicon-check select-menu-item-icon" height="16" version="1.1" viewBox="0 0 12 16" width="12"><path d="M12 5l-8 8-4-4 1.5-1.5L4 10l6.5-6.5z"></path></svg>
              <span class="select-menu-item-text css-truncate-target" title="1.8.0">
                1.8.0
              </span>
            </a>
            <a class="select-menu-item js-navigation-item js-navigation-open "
              href="/libgdx/libgdx/tree/1.7.2/tests/gdx-tests-android/assets/data/default.fnt"
              data-name="1.7.2"
              data-skip-pjax="true"
              rel="nofollow">
              <svg aria-hidden="true" class="octicon octicon-check select-menu-item-icon" height="16" version="1.1" viewBox="0 0 12 16" width="12"><path d="M12 5l-8 8-4-4 1.5-1.5L4 10l6.5-6.5z"></path></svg>
              <span class="select-menu-item-text css-truncate-target" title="1.7.2">
                1.7.2
              </span>
            </a>
            <a class="select-menu-item js-navigation-item js-navigation-open "
              href="/libgdx/libgdx/tree/1.7.1/tests/gdx-tests-android/assets/data/default.fnt"
              data-name="1.7.1"
              data-skip-pjax="true"
              rel="nofollow">
              <svg aria-hidden="true" class="octicon octicon-check select-menu-item-icon" height="16" version="1.1" viewBox="0 0 12 16" width="12"><path d="M12 5l-8 8-4-4 1.5-1.5L4 10l6.5-6.5z"></path></svg>
              <span class="select-menu-item-text css-truncate-target" title="1.7.1">
                1.7.1
              </span>
            </a>
            <a class="select-menu-item js-navigation-item js-navigation-open "
              href="/libgdx/libgdx/tree/1.7.0/tests/gdx-tests-android/assets/data/default.fnt"
              data-name="1.7.0"
              data-skip-pjax="true"
              rel="nofollow">
              <svg aria-hidden="true" class="octicon octicon-check select-menu-item-icon" height="16" version="1.1" viewBox="0 0 12 16" width="12"><path d="M12 5l-8 8-4-4 1.5-1.5L4 10l6.5-6.5z"></path></svg>
              <span class="select-menu-item-text css-truncate-target" title="1.7.0">
                1.7.0
              </span>
            </a>
            <a class="select-menu-item js-navigation-item js-navigation-open "
              href="/libgdx/libgdx/tree/1.6.5/tests/gdx-tests-android/assets/data/default.fnt"
              data-name="1.6.5"
              data-skip-pjax="true"
              rel="nofollow">
              <svg aria-hidden="true" class="octicon octicon-check select-menu-item-icon" height="16" version="1.1" viewBox="0 0 12 16" width="12"><path d="M12 5l-8 8-4-4 1.5-1.5L4 10l6.5-6.5z"></path></svg>
              <span class="select-menu-item-text css-truncate-target" title="1.6.5">
                1.6.5
              </span>
            </a>
            <a class="select-menu-item js-navigation-item js-navigation-open "
              href="/libgdx/libgdx/tree/1.6.4/tests/gdx-tests-android/assets/data/default.fnt"
              data-name="1.6.4"
              data-skip-pjax="true"
              rel="nofollow">
              <svg aria-hidden="true" class="octicon octicon-check select-menu-item-icon" height="16" version="1.1" viewBox="0 0 12 16" width="12"><path d="M12 5l-8 8-4-4 1.5-1.5L4 10l6.5-6.5z"></path></svg>
              <span class="select-menu-item-text css-truncate-target" title="1.6.4">
                1.6.4
              </span>
            </a>
            <a class="select-menu-item js-navigation-item js-navigation-open "
              href="/libgdx/libgdx/tree/1.6.3/tests/gdx-tests-android/assets/data/default.fnt"
              data-name="1.6.3"
              data-skip-pjax="true"
              rel="nofollow">
              <svg aria-hidden="true" class="octicon octicon-check select-menu-item-icon" height="16" version="1.1" viewBox="0 0 12 16" width="12"><path d="M12 5l-8 8-4-4 1.5-1.5L4 10l6.5-6.5z"></path></svg>
              <span class="select-menu-item-text css-truncate-target" title="1.6.3">
                1.6.3
              </span>
            </a>
            <a class="select-menu-item js-navigation-item js-navigation-open "
              href="/libgdx/libgdx/tree/1.6.2/tests/gdx-tests-android/assets/data/default.fnt"
              data-name="1.6.2"
              data-skip-pjax="true"
              rel="nofollow">
              <svg aria-hidden="true" class="octicon octicon-check select-menu-item-icon" height="16" version="1.1" viewBox="0 0 12 16" width="12"><path d="M12 5l-8 8-4-4 1.5-1.5L4 10l6.5-6.5z"></path></svg>
              <span class="select-menu-item-text css-truncate-target" title="1.6.2">
                1.6.2
              </span>
            </a>
            <a class="select-menu-item js-navigation-item js-navigation-open "
              href="/libgdx/libgdx/tree/1.6.1/tests/gdx-tests-android/assets/data/default.fnt"
              data-name="1.6.1"
              data-skip-pjax="true"
              rel="nofollow">
              <svg aria-hidden="true" class="octicon octicon-check select-menu-item-icon" height="16" version="1.1" viewBox="0 0 12 16" width="12"><path d="M12 5l-8 8-4-4 1.5-1.5L4 10l6.5-6.5z"></path></svg>
              <span class="select-menu-item-text css-truncate-target" title="1.6.1">
                1.6.1
              </span>
            </a>
            <a class="select-menu-item js-navigation-item js-navigation-open "
              href="/libgdx/libgdx/tree/1.6.0/tests/gdx-tests-android/assets/data/default.fnt"
              data-name="1.6.0"
              data-skip-pjax="true"
              rel="nofollow">
              <svg aria-hidden="true" class="octicon octicon-check select-menu-item-icon" height="16" version="1.1" viewBox="0 0 12 16" width="12"><path d="M12 5l-8 8-4-4 1.5-1.5L4 10l6.5-6.5z"></path></svg>
              <span class="select-menu-item-text css-truncate-target" title="1.6.0">
                1.6.0
              </span>
            </a>
            <a class="select-menu-item js-navigation-item js-navigation-open "
              href="/libgdx/libgdx/tree/1.5.6/tests/gdx-tests-android/assets/data/default.fnt"
              data-name="1.5.6"
              data-skip-pjax="true"
              rel="nofollow">
              <svg aria-hidden="true" class="octicon octicon-check select-menu-item-icon" height="16" version="1.1" viewBox="0 0 12 16" width="12"><path d="M12 5l-8 8-4-4 1.5-1.5L4 10l6.5-6.5z"></path></svg>
              <span class="select-menu-item-text css-truncate-target" title="1.5.6">
                1.5.6
              </span>
            </a>
            <a class="select-menu-item js-navigation-item js-navigation-open "
              href="/libgdx/libgdx/tree/1.5.5/tests/gdx-tests-android/assets/data/default.fnt"
              data-name="1.5.5"
              data-skip-pjax="true"
              rel="nofollow">
              <svg aria-hidden="true" class="octicon octicon-check select-menu-item-icon" height="16" version="1.1" viewBox="0 0 12 16" width="12"><path d="M12 5l-8 8-4-4 1.5-1.5L4 10l6.5-6.5z"></path></svg>
              <span class="select-menu-item-text css-truncate-target" title="1.5.5">
                1.5.5
              </span>
            </a>
            <a class="select-menu-item js-navigation-item js-navigation-open "
              href="/libgdx/libgdx/tree/1.5.4/tests/gdx-tests-android/assets/data/default.fnt"
              data-name="1.5.4"
              data-skip-pjax="true"
              rel="nofollow">
              <svg aria-hidden="true" class="octicon octicon-check select-menu-item-icon" height="16" version="1.1" viewBox="0 0 12 16" width="12"><path d="M12 5l-8 8-4-4 1.5-1.5L4 10l6.5-6.5z"></path></svg>
              <span class="select-menu-item-text css-truncate-target" title="1.5.4">
                1.5.4
              </span>
            </a>
            <a class="select-menu-item js-navigation-item js-navigation-open "
              href="/libgdx/libgdx/tree/1.5.3/tests/gdx-tests-android/assets/data/default.fnt"
              data-name="1.5.3"
              data-skip-pjax="true"
              rel="nofollow">
              <svg aria-hidden="true" class="octicon octicon-check select-menu-item-icon" height="16" version="1.1" viewBox="0 0 12 16" width="12"><path d="M12 5l-8 8-4-4 1.5-1.5L4 10l6.5-6.5z"></path></svg>
              <span class="select-menu-item-text css-truncate-target" title="1.5.3">
                1.5.3
              </span>
            </a>
            <a class="select-menu-item js-navigation-item js-navigation-open "
              href="/libgdx/libgdx/tree/1.5.2/tests/gdx-tests-android/assets/data/default.fnt"
              data-name="1.5.2"
              data-skip-pjax="true"
              rel="nofollow">
              <svg aria-hidden="true" class="octicon octicon-check select-menu-item-icon" height="16" version="1.1" viewBox="0 0 12 16" width="12"><path d="M12 5l-8 8-4-4 1.5-1.5L4 10l6.5-6.5z"></path></svg>
              <span class="select-menu-item-text css-truncate-target" title="1.5.2">
                1.5.2
              </span>
            </a>
            <a class="select-menu-item js-navigation-item js-navigation-open "
              href="/libgdx/libgdx/tree/1.5.1/tests/gdx-tests-android/assets/data/default.fnt"
              data-name="1.5.1"
              data-skip-pjax="true"
              rel="nofollow">
              <svg aria-hidden="true" class="octicon octicon-check select-menu-item-icon" height="16" version="1.1" viewBox="0 0 12 16" width="12"><path d="M12 5l-8 8-4-4 1.5-1.5L4 10l6.5-6.5z"></path></svg>
              <span class="select-menu-item-text css-truncate-target" title="1.5.1">
                1.5.1
              </span>
            </a>
            <a class="select-menu-item js-navigation-item js-navigation-open "
              href="/libgdx/libgdx/tree/1.5.0/tests/gdx-tests-android/assets/data/default.fnt"
              data-name="1.5.0"
              data-skip-pjax="true"
              rel="nofollow">
              <svg aria-hidden="true" class="octicon octicon-check select-menu-item-icon" height="16" version="1.1" viewBox="0 0 12 16" width="12"><path d="M12 5l-8 8-4-4 1.5-1.5L4 10l6.5-6.5z"></path></svg>
              <span class="select-menu-item-text css-truncate-target" title="1.5.0">
                1.5.0
              </span>
            </a>
            <a class="select-menu-item js-navigation-item js-navigation-open "
              href="/libgdx/libgdx/tree/1.4.1/tests/gdx-tests-android/assets/data/default.fnt"
              data-name="1.4.1"
              data-skip-pjax="true"
              rel="nofollow">
              <svg aria-hidden="true" class="octicon octicon-check select-menu-item-icon" height="16" version="1.1" viewBox="0 0 12 16" width="12"><path d="M12 5l-8 8-4-4 1.5-1.5L4 10l6.5-6.5z"></path></svg>
              <span class="select-menu-item-text css-truncate-target" title="1.4.1">
                1.4.1
              </span>
            </a>
            <a class="select-menu-item js-navigation-item js-navigation-open "
              href="/libgdx/libgdx/tree/1.4.0/tests/gdx-tests-android/assets/data/default.fnt"
              data-name="1.4.0"
              data-skip-pjax="true"
              rel="nofollow">
              <svg aria-hidden="true" class="octicon octicon-check select-menu-item-icon" height="16" version="1.1" viewBox="0 0 12 16" width="12"><path d="M12 5l-8 8-4-4 1.5-1.5L4 10l6.5-6.5z"></path></svg>
              <span class="select-menu-item-text css-truncate-target" title="1.4.0">
                1.4.0
              </span>
            </a>
            <a class="select-menu-item js-navigation-item js-navigation-open "
              href="/libgdx/libgdx/tree/1.3.1/tests/gdx-tests-android/assets/data/default.fnt"
              data-name="1.3.1"
              data-skip-pjax="true"
              rel="nofollow">
              <svg aria-hidden="true" class="octicon octicon-check select-menu-item-icon" height="16" version="1.1" viewBox="0 0 12 16" width="12"><path d="M12 5l-8 8-4-4 1.5-1.5L4 10l6.5-6.5z"></path></svg>
              <span class="select-menu-item-text css-truncate-target" title="1.3.1">
                1.3.1
              </span>
            </a>
            <a class="select-menu-item js-navigation-item js-navigation-open "
              href="/libgdx/libgdx/tree/1.3.0/tests/gdx-tests-android/assets/data/default.fnt"
              data-name="1.3.0"
              data-skip-pjax="true"
              rel="nofollow">
              <svg aria-hidden="true" class="octicon octicon-check select-menu-item-icon" height="16" version="1.1" viewBox="0 0 12 16" width="12"><path d="M12 5l-8 8-4-4 1.5-1.5L4 10l6.5-6.5z"></path></svg>
              <span class="select-menu-item-text css-truncate-target" title="1.3.0">
                1.3.0
              </span>
            </a>
            <a class="select-menu-item js-navigation-item js-navigation-open "
              href="/libgdx/libgdx/tree/1.1.0/tests/gdx-tests-android/assets/data/default.fnt"
              data-name="1.1.0"
              data-skip-pjax="true"
              rel="nofollow">
              <svg aria-hidden="true" class="octicon octicon-check select-menu-item-icon" height="16" version="1.1" viewBox="0 0 12 16" width="12"><path d="M12 5l-8 8-4-4 1.5-1.5L4 10l6.5-6.5z"></path></svg>
              <span class="select-menu-item-text css-truncate-target" title="1.1.0">
                1.1.0
              </span>
            </a>
            <a class="select-menu-item js-navigation-item js-navigation-open "
              href="/libgdx/libgdx/tree/1.0.1/tests/gdx-tests-android/assets/data/default.fnt"
              data-name="1.0.1"
              data-skip-pjax="true"
              rel="nofollow">
              <svg aria-hidden="true" class="octicon octicon-check select-menu-item-icon" height="16" version="1.1" viewBox="0 0 12 16" width="12"><path d="M12 5l-8 8-4-4 1.5-1.5L4 10l6.5-6.5z"></path></svg>
              <span class="select-menu-item-text css-truncate-target" title="1.0.1">
                1.0.1
              </span>
            </a>
            <a class="select-menu-item js-navigation-item js-navigation-open "
              href="/libgdx/libgdx/tree/1.0.0/tests/gdx-tests-android/assets/data/default.fnt"
              data-name="1.0.0"
              data-skip-pjax="true"
              rel="nofollow">
              <svg aria-hidden="true" class="octicon octicon-check select-menu-item-icon" height="16" version="1.1" viewBox="0 0 12 16" width="12"><path d="M12 5l-8 8-4-4 1.5-1.5L4 10l6.5-6.5z"></path></svg>
              <span class="select-menu-item-text css-truncate-target" title="1.0.0">
                1.0.0
              </span>
            </a>
            <a class="select-menu-item js-navigation-item js-navigation-open "
              href="/libgdx/libgdx/tree/0.9.9/tests/gdx-tests-android/assets/data/default.fnt"
              data-name="0.9.9"
              data-skip-pjax="true"
              rel="nofollow">
              <svg aria-hidden="true" class="octicon octicon-check select-menu-item-icon" height="16" version="1.1" viewBox="0 0 12 16" width="12"><path d="M12 5l-8 8-4-4 1.5-1.5L4 10l6.5-6.5z"></path></svg>
              <span class="select-menu-item-text css-truncate-target" title="0.9.9">
                0.9.9
              </span>
            </a>
            <a class="select-menu-item js-navigation-item js-navigation-open "
              href="/libgdx/libgdx/tree/0.9.9-xamarin/tests/gdx-tests-android/assets/data/default.fnt"
              data-name="0.9.9-xamarin"
              data-skip-pjax="true"
              rel="nofollow">
              <svg aria-hidden="true" class="octicon octicon-check select-menu-item-icon" height="16" version="1.1" viewBox="0 0 12 16" width="12"><path d="M12 5l-8 8-4-4 1.5-1.5L4 10l6.5-6.5z"></path></svg>
              <span class="select-menu-item-text css-truncate-target" title="0.9.9-xamarin">
                0.9.9-xamarin
              </span>
            </a>
            <a class="select-menu-item js-navigation-item js-navigation-open "
              href="/libgdx/libgdx/tree/0.9.8/tests/gdx-tests-android/assets/data/default.fnt"
              data-name="0.9.8"
              data-skip-pjax="true"
              rel="nofollow">
              <svg aria-hidden="true" class="octicon octicon-check select-menu-item-icon" height="16" version="1.1" viewBox="0 0 12 16" width="12"><path d="M12 5l-8 8-4-4 1.5-1.5L4 10l6.5-6.5z"></path></svg>
              <span class="select-menu-item-text css-truncate-target" title="0.9.8">
                0.9.8
              </span>
            </a>
            <a class="select-menu-item js-navigation-item js-navigation-open "
              href="/libgdx/libgdx/tree/0.9.7/tests/gdx-tests-android/assets/data/default.fnt"
              data-name="0.9.7"
              data-skip-pjax="true"
              rel="nofollow">
              <svg aria-hidden="true" class="octicon octicon-check select-menu-item-icon" height="16" version="1.1" viewBox="0 0 12 16" width="12"><path d="M12 5l-8 8-4-4 1.5-1.5L4 10l6.5-6.5z"></path></svg>
              <span class="select-menu-item-text css-truncate-target" title="0.9.7">
                0.9.7
              </span>
            </a>
            <a class="select-menu-item js-navigation-item js-navigation-open "
              href="/libgdx/libgdx/tree/0.9.6/tests/gdx-tests-android/assets/data/default.fnt"
              data-name="0.9.6"
              data-skip-pjax="true"
              rel="nofollow">
              <svg aria-hidden="true" class="octicon octicon-check select-menu-item-icon" height="16" version="1.1" viewBox="0 0 12 16" width="12"><path d="M12 5l-8 8-4-4 1.5-1.5L4 10l6.5-6.5z"></path></svg>
              <span class="select-menu-item-text css-truncate-target" title="0.9.6">
                0.9.6
              </span>
            </a>
            <a class="select-menu-item js-navigation-item js-navigation-open "
              href="/libgdx/libgdx/tree/0.9.3/tests/gdx-tests-android/assets/data/default.fnt"
              data-name="0.9.3"
              data-skip-pjax="true"
              rel="nofollow">
              <svg aria-hidden="true" class="octicon octicon-check select-menu-item-icon" height="16" version="1.1" viewBox="0 0 12 16" width="12"><path d="M12 5l-8 8-4-4 1.5-1.5L4 10l6.5-6.5z"></path></svg>
              <span class="select-menu-item-text css-truncate-target" title="0.9.3">
                0.9.3
              </span>
            </a>
            <a class="select-menu-item js-navigation-item js-navigation-open "
              href="/libgdx/libgdx/tree/0.9.2/tests/gdx-tests-android/assets/data/default.fnt"
              data-name="0.9.2"
              data-skip-pjax="true"
              rel="nofollow">
              <svg aria-hidden="true" class="octicon octicon-check select-menu-item-icon" height="16" version="1.1" viewBox="0 0 12 16" width="12"><path d="M12 5l-8 8-4-4 1.5-1.5L4 10l6.5-6.5z"></path></svg>
              <span class="select-menu-item-text css-truncate-target" title="0.9.2">
                0.9.2
              </span>
            </a>
            <a class="select-menu-item js-navigation-item js-navigation-open "
              href="/libgdx/libgdx/tree/0.9.1/tests/gdx-tests-android/assets/data/default.fnt"
              data-name="0.9.1"
              data-skip-pjax="true"
              rel="nofollow">
              <svg aria-hidden="true" class="octicon octicon-check select-menu-item-icon" height="16" version="1.1" viewBox="0 0 12 16" width="12"><path d="M12 5l-8 8-4-4 1.5-1.5L4 10l6.5-6.5z"></path></svg>
              <span class="select-menu-item-text css-truncate-target" title="0.9.1">
                0.9.1
              </span>
            </a>
            <a class="select-menu-item js-navigation-item js-navigation-open "
              href="/libgdx/libgdx/tree/0.9/tests/gdx-tests-android/assets/data/default.fnt"
              data-name="0.9"
              data-skip-pjax="true"
              rel="nofollow">
              <svg aria-hidden="true" class="octicon octicon-check select-menu-item-icon" height="16" version="1.1" viewBox="0 0 12 16" width="12"><path d="M12 5l-8 8-4-4 1.5-1.5L4 10l6.5-6.5z"></path></svg>
              <span class="select-menu-item-text css-truncate-target" title="0.9">
                0.9
              </span>
            </a>
        </div>

        <div class="select-menu-no-results">Nothing to show</div>
      </div>

    </div>
  </div>
</div>

  <div class="btn-group float-right">
    <a href="/libgdx/libgdx/find/master"
          class="js-pjax-capture-input btn btn-sm"
          data-pjax
          data-hotkey="t">
      Find file
    </a>
    <button aria-label="Copy file path to clipboard" class="js-zeroclipboard btn btn-sm zeroclipboard-button tooltipped tooltipped-s" data-copied-hint="Copied!" type="button">Copy path</button>
  </div>
  <div class="breadcrumb js-zeroclipboard-target">
    <span class="repo-root js-repo-root"><span class="js-path-segment"><a href="/libgdx/libgdx"><span>libgdx</span></a></span></span><span class="separator">/</span><span class="js-path-segment"><a href="/libgdx/libgdx/tree/master/tests"><span>tests</span></a></span><span class="separator">/</span><span class="js-path-segment"><a href="/libgdx/libgdx/tree/master/tests/gdx-tests-android"><span>gdx-tests-android</span></a></span><span class="separator">/</span><span class="js-path-segment"><a href="/libgdx/libgdx/tree/master/tests/gdx-tests-android/assets"><span>assets</span></a></span><span class="separator">/</span><span class="js-path-segment"><a href="/libgdx/libgdx/tree/master/tests/gdx-tests-android/assets/data"><span>data</span></a></span><span class="separator">/</span><strong class="final-path">default.fnt</strong>
  </div>
</div>


  <div class="commit-tease">
      <span class="right">
        <a class="commit-tease-sha" href="/libgdx/libgdx/commit/6b7028b0d730ee61b1ca06e2ed05580bec0509c5" data-pjax>
          6b7028b
        </a>
        <relative-time datetime="2013-09-07T19:08:26Z">Sep 7, 2013</relative-time>
      </span>
      <div>
        <img alt="@mattdesl" class="avatar" height="20" src="https://avatars3.githubusercontent.com/u/1383811?v=3&amp;s=40" width="20" />
        <a href="/mattdesl" class="user-mention" rel="contributor">mattdesl</a>
          <a href="/libgdx/libgdx/commit/6b7028b0d730ee61b1ca06e2ed05580bec0509c5" class="message" data-pjax="true" title="Adding multi-page fonts to BitmapFont; updating FreeTypeFontGenerator for packing multiple fonts together">Adding multi-page fonts to BitmapFont; updating FreeTypeFontGenerator…</a>
      </div>

    <div class="commit-tease-contributors">
      <button type="button" class="btn-link muted-link contributors-toggle" data-facebox="#blob_contributors_box">
        <strong>1</strong>
         contributor
      </button>
      
    </div>

    <div id="blob_contributors_box" style="display:none">
      <h2 class="facebox-header" data-facebox-id="facebox-header">Users who have contributed to this file</h2>
      <ul class="facebox-user-list" data-facebox-id="facebox-description">
          <li class="facebox-user-list-item">
            <img alt="@mattdesl" height="24" src="https://avatars1.githubusercontent.com/u/1383811?v=3&amp;s=48" width="24" />
            <a href="/mattdesl">mattdesl</a>
          </li>
      </ul>
    </div>
  </div>

<div class="file">
  <div class="file-header">
  <div class="file-actions">

    <div class="btn-group">
      <a href="/libgdx/libgdx/raw/master/tests/gdx-tests-android/assets/data/default.fnt" class="btn btn-sm " id="raw-url">Raw</a>
        <a href="/libgdx/libgdx/blame/master/tests/gdx-tests-android/assets/data/default.fnt" class="btn btn-sm js-update-url-with-hash">Blame</a>
      <a href="/libgdx/libgdx/commits/master/tests/gdx-tests-android/assets/data/default.fnt" class="btn btn-sm " rel="nofollow">History</a>
    </div>

        <a class="btn-octicon tooltipped tooltipped-nw"
           href="https://windows.github.com"
           aria-label="Open this file in GitHub Desktop"
           data-ga-click="Repository, open with desktop, type:windows">
            <svg aria-hidden="true" class="octicon octicon-device-desktop" height="16" version="1.1" viewBox="0 0 16 16" width="16"><path d="M15 2H1c-.55 0-1 .45-1 1v9c0 .55.45 1 1 1h5.34c-.25.61-.86 1.39-2.34 2h8c-1.48-.61-2.09-1.39-2.34-2H15c.55 0 1-.45 1-1V3c0-.55-.45-1-1-1zm0 9H1V3h14v8z"></path></svg>
        </a>

        <button type="button" class="btn-octicon disabled tooltipped tooltipped-nw"
          aria-label="You must be signed in to make or propose changes">
          <svg aria-hidden="true" class="octicon octicon-pencil" height="16" version="1.1" viewBox="0 0 14 16" width="14"><path d="M0 12v3h3l8-8-3-3-8 8zm3 2H1v-2h1v1h1v1zm10.3-9.3L12 6 9 3l1.3-1.3a.996.996 0 0 1 1.41 0l1.59 1.59c.39.39.39 1.02 0 1.41z"></path></svg>
        </button>
        <button type="button" class="btn-octicon btn-octicon-danger disabled tooltipped tooltipped-nw"
          aria-label="You must be signed in to make or propose changes">
          <svg aria-hidden="true" class="octicon octicon-trashcan" height="16" version="1.1" viewBox="0 0 12 16" width="12"><path d="M11 2H9c0-.55-.45-1-1-1H5c-.55 0-1 .45-1 1H2c-.55 0-1 .45-1 1v1c0 .55.45 1 1 1v9c0 .55.45 1 1 1h7c.55 0 1-.45 1-1V5c.55 0 1-.45 1-1V3c0-.55-.45-1-1-1zm-1 12H3V5h1v8h1V5h1v8h1V5h1v8h1V5h1v9zm1-10H2V3h9v1z"></path></svg>
        </button>
  </div>

  <div class="file-info">
      102 lines (101 sloc)
      <span class="file-info-divider"></span>
    11.4 KB
  </div>
</div>

  

  <div itemprop="text" class="blob-wrapper data type-text">
      <table class="highlight tab-size js-file-line-container" data-tab-size="8">
      <tr>
        <td id="L1" class="blob-num js-line-number" data-line-number="1"></td>
        <td id="LC1" class="blob-code blob-code-inner js-file-line">info face=&quot;Droid Sans&quot; size=17 bold=0 italic=0 charset=&quot;&quot; unicode=0 stretchH=100 smooth=1 aa=1 padding=0,0,0,0 spacing=1,1</td>
      </tr>
      <tr>
        <td id="L2" class="blob-num js-line-number" data-line-number="2"></td>
        <td id="LC2" class="blob-code blob-code-inner js-file-line">common lineHeight=20 base=18 scaleW=256 scaleH=128 pages=1 packed=0</td>
      </tr>
      <tr>
        <td id="L3" class="blob-num js-line-number" data-line-number="3"></td>
        <td id="LC3" class="blob-code blob-code-inner js-file-line">page id=0 file=&quot;default.png&quot;</td>
      </tr>
      <tr>
        <td id="L4" class="blob-num js-line-number" data-line-number="4"></td>
        <td id="LC4" class="blob-code blob-code-inner js-file-line">chars count=96</td>
      </tr>
      <tr>
        <td id="L5" class="blob-num js-line-number" data-line-number="5"></td>
        <td id="LC5" class="blob-code blob-code-inner js-file-line">char id=32   x=0     y=0     width=0     height=0     xoffset=0     yoffset=16    xadvance=4     page=0  chnl=0 </td>
      </tr>
      <tr>
        <td id="L6" class="blob-num js-line-number" data-line-number="6"></td>
        <td id="LC6" class="blob-code blob-code-inner js-file-line">char id=124   x=0     y=0     width=6     height=20     xoffset=1     yoffset=3    xadvance=9     page=0  chnl=0 </td>
      </tr>
      <tr>
        <td id="L7" class="blob-num js-line-number" data-line-number="7"></td>
        <td id="LC7" class="blob-code blob-code-inner js-file-line">char id=106   x=6     y=0     width=9     height=20     xoffset=-4     yoffset=3    xadvance=4     page=0  chnl=0 </td>
      </tr>
      <tr>
        <td id="L8" class="blob-num js-line-number" data-line-number="8"></td>
        <td id="LC8" class="blob-code blob-code-inner js-file-line">char id=81   x=15     y=0     width=15     height=19     xoffset=-2     yoffset=3    xadvance=12     page=0  chnl=0 </td>
      </tr>
      <tr>
        <td id="L9" class="blob-num js-line-number" data-line-number="9"></td>
        <td id="LC9" class="blob-code blob-code-inner js-file-line">char id=74   x=30     y=0     width=11     height=19     xoffset=-5     yoffset=3    xadvance=4     page=0  chnl=0 </td>
      </tr>
      <tr>
        <td id="L10" class="blob-num js-line-number" data-line-number="10"></td>
        <td id="LC10" class="blob-code blob-code-inner js-file-line">char id=125   x=41     y=0     width=10     height=18     xoffset=-3     yoffset=3    xadvance=6     page=0  chnl=0 </td>
      </tr>
      <tr>
        <td id="L11" class="blob-num js-line-number" data-line-number="11"></td>
        <td id="LC11" class="blob-code blob-code-inner js-file-line">char id=123   x=51     y=0     width=10     height=18     xoffset=-3     yoffset=3    xadvance=6     page=0  chnl=0 </td>
      </tr>
      <tr>
        <td id="L12" class="blob-num js-line-number" data-line-number="12"></td>
        <td id="LC12" class="blob-code blob-code-inner js-file-line">char id=93   x=61     y=0     width=8     height=18     xoffset=-3     yoffset=3    xadvance=5     page=0  chnl=0 </td>
      </tr>
      <tr>
        <td id="L13" class="blob-num js-line-number" data-line-number="13"></td>
        <td id="LC13" class="blob-code blob-code-inner js-file-line">char id=91   x=69     y=0     width=8     height=18     xoffset=-2     yoffset=3    xadvance=5     page=0  chnl=0 </td>
      </tr>
      <tr>
        <td id="L14" class="blob-num js-line-number" data-line-number="14"></td>
        <td id="LC14" class="blob-code blob-code-inner js-file-line">char id=41   x=77     y=0     width=9     height=18     xoffset=-3     yoffset=3    xadvance=5     page=0  chnl=0 </td>
      </tr>
      <tr>
        <td id="L15" class="blob-num js-line-number" data-line-number="15"></td>
        <td id="LC15" class="blob-code blob-code-inner js-file-line">char id=40   x=86     y=0     width=9     height=18     xoffset=-3     yoffset=3    xadvance=5     page=0  chnl=0 </td>
      </tr>
      <tr>
        <td id="L16" class="blob-num js-line-number" data-line-number="16"></td>
        <td id="LC16" class="blob-code blob-code-inner js-file-line">char id=64   x=95     y=0     width=18     height=17     xoffset=-3     yoffset=3    xadvance=14     page=0  chnl=0 </td>
      </tr>
      <tr>
        <td id="L17" class="blob-num js-line-number" data-line-number="17"></td>
        <td id="LC17" class="blob-code blob-code-inner js-file-line">char id=121   x=113     y=0     width=13     height=17     xoffset=-3     yoffset=6    xadvance=8     page=0  chnl=0 </td>
      </tr>
      <tr>
        <td id="L18" class="blob-num js-line-number" data-line-number="18"></td>
        <td id="LC18" class="blob-code blob-code-inner js-file-line">char id=113   x=126     y=0     width=13     height=17     xoffset=-3     yoffset=6    xadvance=9     page=0  chnl=0 </td>
      </tr>
      <tr>
        <td id="L19" class="blob-num js-line-number" data-line-number="19"></td>
        <td id="LC19" class="blob-code blob-code-inner js-file-line">char id=112   x=139     y=0     width=13     height=17     xoffset=-2     yoffset=6    xadvance=9     page=0  chnl=0 </td>
      </tr>
      <tr>
        <td id="L20" class="blob-num js-line-number" data-line-number="20"></td>
        <td id="LC20" class="blob-code blob-code-inner js-file-line">char id=103   x=152     y=0     width=13     height=17     xoffset=-3     yoffset=6    xadvance=8     page=0  chnl=0 </td>
      </tr>
      <tr>
        <td id="L21" class="blob-num js-line-number" data-line-number="21"></td>
        <td id="LC21" class="blob-code blob-code-inner js-file-line">char id=38   x=165     y=0     width=16     height=16     xoffset=-3     yoffset=3    xadvance=11     page=0  chnl=0 </td>
      </tr>
      <tr>
        <td id="L22" class="blob-num js-line-number" data-line-number="22"></td>
        <td id="LC22" class="blob-code blob-code-inner js-file-line">char id=37   x=181     y=0     width=18     height=16     xoffset=-3     yoffset=3    xadvance=14     page=0  chnl=0 </td>
      </tr>
      <tr>
        <td id="L23" class="blob-num js-line-number" data-line-number="23"></td>
        <td id="LC23" class="blob-code blob-code-inner js-file-line">char id=36   x=199     y=0     width=12     height=16     xoffset=-2     yoffset=3    xadvance=9     page=0  chnl=0 </td>
      </tr>
      <tr>
        <td id="L24" class="blob-num js-line-number" data-line-number="24"></td>
        <td id="LC24" class="blob-code blob-code-inner js-file-line">char id=63   x=211     y=0     width=11     height=16     xoffset=-3     yoffset=3    xadvance=7     page=0  chnl=0 </td>
      </tr>
      <tr>
        <td id="L25" class="blob-num js-line-number" data-line-number="25"></td>
        <td id="LC25" class="blob-code blob-code-inner js-file-line">char id=33   x=222     y=0     width=7     height=16     xoffset=-2     yoffset=3    xadvance=4     page=0  chnl=0 </td>
      </tr>
      <tr>
        <td id="L26" class="blob-num js-line-number" data-line-number="26"></td>
        <td id="LC26" class="blob-code blob-code-inner js-file-line">char id=48   x=229     y=0     width=13     height=16     xoffset=-3     yoffset=3    xadvance=9     page=0  chnl=0 </td>
      </tr>
      <tr>
        <td id="L27" class="blob-num js-line-number" data-line-number="27"></td>
        <td id="LC27" class="blob-code blob-code-inner js-file-line">char id=57   x=242     y=0     width=13     height=16     xoffset=-3     yoffset=3    xadvance=9     page=0  chnl=0 </td>
      </tr>
      <tr>
        <td id="L28" class="blob-num js-line-number" data-line-number="28"></td>
        <td id="LC28" class="blob-code blob-code-inner js-file-line">char id=56   x=0     y=20     width=13     height=16     xoffset=-3     yoffset=3    xadvance=9     page=0  chnl=0 </td>
      </tr>
      <tr>
        <td id="L29" class="blob-num js-line-number" data-line-number="29"></td>
        <td id="LC29" class="blob-code blob-code-inner js-file-line">char id=54   x=13     y=20     width=13     height=16     xoffset=-3     yoffset=3    xadvance=9     page=0  chnl=0 </td>
      </tr>
      <tr>
        <td id="L30" class="blob-num js-line-number" data-line-number="30"></td>
        <td id="LC30" class="blob-code blob-code-inner js-file-line">char id=53   x=26     y=20     width=12     height=16     xoffset=-2     yoffset=3    xadvance=9     page=0  chnl=0 </td>
      </tr>
      <tr>
        <td id="L31" class="blob-num js-line-number" data-line-number="31"></td>
        <td id="LC31" class="blob-code blob-code-inner js-file-line">char id=51   x=38     y=20     width=13     height=16     xoffset=-3     yoffset=3    xadvance=9     page=0  chnl=0 </td>
      </tr>
      <tr>
        <td id="L32" class="blob-num js-line-number" data-line-number="32"></td>
        <td id="LC32" class="blob-code blob-code-inner js-file-line">char id=100   x=51     y=20     width=13     height=16     xoffset=-3     yoffset=3    xadvance=9     page=0  chnl=0 </td>
      </tr>
      <tr>
        <td id="L33" class="blob-num js-line-number" data-line-number="33"></td>
        <td id="LC33" class="blob-code blob-code-inner js-file-line">char id=98   x=64     y=20     width=13     height=16     xoffset=-2     yoffset=3    xadvance=9     page=0  chnl=0 </td>
      </tr>
      <tr>
        <td id="L34" class="blob-num js-line-number" data-line-number="34"></td>
        <td id="LC34" class="blob-code blob-code-inner js-file-line">char id=85   x=77     y=20     width=14     height=16     xoffset=-2     yoffset=3    xadvance=11     page=0  chnl=0 </td>
      </tr>
      <tr>
        <td id="L35" class="blob-num js-line-number" data-line-number="35"></td>
        <td id="LC35" class="blob-code blob-code-inner js-file-line">char id=83   x=91     y=20     width=13     height=16     xoffset=-3     yoffset=3    xadvance=8     page=0  chnl=0 </td>
      </tr>
      <tr>
        <td id="L36" class="blob-num js-line-number" data-line-number="36"></td>
        <td id="LC36" class="blob-code blob-code-inner js-file-line">char id=79   x=104     y=20     width=15     height=16     xoffset=-2     yoffset=3    xadvance=12     page=0  chnl=0 </td>
      </tr>
      <tr>
        <td id="L37" class="blob-num js-line-number" data-line-number="37"></td>
        <td id="LC37" class="blob-code blob-code-inner js-file-line">char id=71   x=119     y=20     width=14     height=16     xoffset=-2     yoffset=3    xadvance=11     page=0  chnl=0 </td>
      </tr>
      <tr>
        <td id="L38" class="blob-num js-line-number" data-line-number="38"></td>
        <td id="LC38" class="blob-code blob-code-inner js-file-line">char id=67   x=133     y=20     width=13     height=16     xoffset=-2     yoffset=3    xadvance=10     page=0  chnl=0 </td>
      </tr>
      <tr>
        <td id="L39" class="blob-num js-line-number" data-line-number="39"></td>
        <td id="LC39" class="blob-code blob-code-inner js-file-line">char id=127   x=146     y=20     width=12     height=15     xoffset=-2     yoffset=3    xadvance=10     page=0  chnl=0 </td>
      </tr>
      <tr>
        <td id="L40" class="blob-num js-line-number" data-line-number="40"></td>
        <td id="LC40" class="blob-code blob-code-inner js-file-line">char id=35   x=158     y=20     width=15     height=15     xoffset=-3     yoffset=3    xadvance=10     page=0  chnl=0 </td>
      </tr>
      <tr>
        <td id="L41" class="blob-num js-line-number" data-line-number="41"></td>
        <td id="LC41" class="blob-code blob-code-inner js-file-line">char id=92   x=173     y=20     width=11     height=15     xoffset=-3     yoffset=3    xadvance=6     page=0  chnl=0 </td>
      </tr>
      <tr>
        <td id="L42" class="blob-num js-line-number" data-line-number="42"></td>
        <td id="LC42" class="blob-code blob-code-inner js-file-line">char id=47   x=184     y=20     width=11     height=15     xoffset=-3     yoffset=3    xadvance=6     page=0  chnl=0 </td>
      </tr>
      <tr>
        <td id="L43" class="blob-num js-line-number" data-line-number="43"></td>
        <td id="LC43" class="blob-code blob-code-inner js-file-line">char id=59   x=195     y=20     width=8     height=15     xoffset=-3     yoffset=6    xadvance=4     page=0  chnl=0 </td>
      </tr>
      <tr>
        <td id="L44" class="blob-num js-line-number" data-line-number="44"></td>
        <td id="LC44" class="blob-code blob-code-inner js-file-line">char id=55   x=203     y=20     width=13     height=15     xoffset=-3     yoffset=3    xadvance=9     page=0  chnl=0 </td>
      </tr>
      <tr>
        <td id="L45" class="blob-num js-line-number" data-line-number="45"></td>
        <td id="LC45" class="blob-code blob-code-inner js-file-line">char id=52   x=216     y=20     width=14     height=15     xoffset=-3     yoffset=3    xadvance=9     page=0  chnl=0 </td>
      </tr>
      <tr>
        <td id="L46" class="blob-num js-line-number" data-line-number="46"></td>
        <td id="LC46" class="blob-code blob-code-inner js-file-line">char id=50   x=230     y=20     width=13     height=15     xoffset=-3     yoffset=3    xadvance=9     page=0  chnl=0 </td>
      </tr>
      <tr>
        <td id="L47" class="blob-num js-line-number" data-line-number="47"></td>
        <td id="LC47" class="blob-code blob-code-inner js-file-line">char id=49   x=243     y=20     width=9     height=15     xoffset=-2     yoffset=3    xadvance=9     page=0  chnl=0 </td>
      </tr>
      <tr>
        <td id="L48" class="blob-num js-line-number" data-line-number="48"></td>
        <td id="LC48" class="blob-code blob-code-inner js-file-line">char id=116   x=0     y=36     width=10     height=15     xoffset=-3     yoffset=4    xadvance=5     page=0  chnl=0 </td>
      </tr>
      <tr>
        <td id="L49" class="blob-num js-line-number" data-line-number="49"></td>
        <td id="LC49" class="blob-code blob-code-inner js-file-line">char id=108   x=10     y=36     width=6     height=15     xoffset=-2     yoffset=3    xadvance=4     page=0  chnl=0 </td>
      </tr>
      <tr>
        <td id="L50" class="blob-num js-line-number" data-line-number="50"></td>
        <td id="LC50" class="blob-code blob-code-inner js-file-line">char id=107   x=16     y=36     width=12     height=15     xoffset=-2     yoffset=3    xadvance=8     page=0  chnl=0 </td>
      </tr>
      <tr>
        <td id="L51" class="blob-num js-line-number" data-line-number="51"></td>
        <td id="LC51" class="blob-code blob-code-inner js-file-line">char id=105   x=28     y=36     width=7     height=15     xoffset=-2     yoffset=3    xadvance=4     page=0  chnl=0 </td>
      </tr>
      <tr>
        <td id="L52" class="blob-num js-line-number" data-line-number="52"></td>
        <td id="LC52" class="blob-code blob-code-inner js-file-line">char id=104   x=35     y=36     width=12     height=15     xoffset=-2     yoffset=3    xadvance=10     page=0  chnl=0 </td>
      </tr>
      <tr>
        <td id="L53" class="blob-num js-line-number" data-line-number="53"></td>
        <td id="LC53" class="blob-code blob-code-inner js-file-line">char id=102   x=47     y=36     width=11     height=15     xoffset=-3     yoffset=3    xadvance=5     page=0  chnl=0 </td>
      </tr>
      <tr>
        <td id="L54" class="blob-num js-line-number" data-line-number="54"></td>
        <td id="LC54" class="blob-code blob-code-inner js-file-line">char id=90   x=58     y=36     width=13     height=15     xoffset=-3     yoffset=3    xadvance=9     page=0  chnl=0 </td>
      </tr>
      <tr>
        <td id="L55" class="blob-num js-line-number" data-line-number="55"></td>
        <td id="LC55" class="blob-code blob-code-inner js-file-line">char id=89   x=71     y=36     width=13     height=15     xoffset=-3     yoffset=3    xadvance=8     page=0  chnl=0 </td>
      </tr>
      <tr>
        <td id="L56" class="blob-num js-line-number" data-line-number="56"></td>
        <td id="LC56" class="blob-code blob-code-inner js-file-line">char id=88   x=84     y=36     width=14     height=15     xoffset=-3     yoffset=3    xadvance=9     page=0  chnl=0 </td>
      </tr>
      <tr>
        <td id="L57" class="blob-num js-line-number" data-line-number="57"></td>
        <td id="LC57" class="blob-code blob-code-inner js-file-line">char id=87   x=98     y=36     width=19     height=15     xoffset=-3     yoffset=3    xadvance=15     page=0  chnl=0 </td>
      </tr>
      <tr>
        <td id="L58" class="blob-num js-line-number" data-line-number="58"></td>
        <td id="LC58" class="blob-code blob-code-inner js-file-line">char id=86   x=117     y=36     width=14     height=15     xoffset=-3     yoffset=3    xadvance=9     page=0  chnl=0 </td>
      </tr>
      <tr>
        <td id="L59" class="blob-num js-line-number" data-line-number="59"></td>
        <td id="LC59" class="blob-code blob-code-inner js-file-line">char id=84   x=131     y=36     width=13     height=15     xoffset=-3     yoffset=3    xadvance=8     page=0  chnl=0 </td>
      </tr>
      <tr>
        <td id="L60" class="blob-num js-line-number" data-line-number="60"></td>
        <td id="LC60" class="blob-code blob-code-inner js-file-line">char id=82   x=144     y=36     width=13     height=15     xoffset=-2     yoffset=3    xadvance=10     page=0  chnl=0 </td>
      </tr>
      <tr>
        <td id="L61" class="blob-num js-line-number" data-line-number="61"></td>
        <td id="LC61" class="blob-code blob-code-inner js-file-line">char id=80   x=157     y=36     width=12     height=15     xoffset=-2     yoffset=3    xadvance=9     page=0  chnl=0 </td>
      </tr>
      <tr>
        <td id="L62" class="blob-num js-line-number" data-line-number="62"></td>
        <td id="LC62" class="blob-code blob-code-inner js-file-line">char id=78   x=169     y=36     width=14     height=15     xoffset=-2     yoffset=3    xadvance=12     page=0  chnl=0 </td>
      </tr>
      <tr>
        <td id="L63" class="blob-num js-line-number" data-line-number="63"></td>
        <td id="LC63" class="blob-code blob-code-inner js-file-line">char id=77   x=183     y=36     width=17     height=15     xoffset=-2     yoffset=3    xadvance=14     page=0  chnl=0 </td>
      </tr>
      <tr>
        <td id="L64" class="blob-num js-line-number" data-line-number="64"></td>
        <td id="LC64" class="blob-code blob-code-inner js-file-line">char id=76   x=200     y=36     width=11     height=15     xoffset=-2     yoffset=3    xadvance=8     page=0  chnl=0 </td>
      </tr>
      <tr>
        <td id="L65" class="blob-num js-line-number" data-line-number="65"></td>
        <td id="LC65" class="blob-code blob-code-inner js-file-line">char id=75   x=211     y=36     width=13     height=15     xoffset=-2     yoffset=3    xadvance=9     page=0  chnl=0 </td>
      </tr>
      <tr>
        <td id="L66" class="blob-num js-line-number" data-line-number="66"></td>
        <td id="LC66" class="blob-code blob-code-inner js-file-line">char id=73   x=224     y=36     width=10     height=15     xoffset=-3     yoffset=3    xadvance=5     page=0  chnl=0 </td>
      </tr>
      <tr>
        <td id="L67" class="blob-num js-line-number" data-line-number="67"></td>
        <td id="LC67" class="blob-code blob-code-inner js-file-line">char id=72   x=234     y=36     width=14     height=15     xoffset=-2     yoffset=3    xadvance=11     page=0  chnl=0 </td>
      </tr>
      <tr>
        <td id="L68" class="blob-num js-line-number" data-line-number="68"></td>
        <td id="LC68" class="blob-code blob-code-inner js-file-line">char id=70   x=0     y=51     width=11     height=15     xoffset=-2     yoffset=3    xadvance=8     page=0  chnl=0 </td>
      </tr>
      <tr>
        <td id="L69" class="blob-num js-line-number" data-line-number="69"></td>
        <td id="LC69" class="blob-code blob-code-inner js-file-line">char id=69   x=11     y=51     width=11     height=15     xoffset=-2     yoffset=3    xadvance=8     page=0  chnl=0 </td>
      </tr>
      <tr>
        <td id="L70" class="blob-num js-line-number" data-line-number="70"></td>
        <td id="LC70" class="blob-code blob-code-inner js-file-line">char id=68   x=22     y=51     width=14     height=15     xoffset=-2     yoffset=3    xadvance=11     page=0  chnl=0 </td>
      </tr>
      <tr>
        <td id="L71" class="blob-num js-line-number" data-line-number="71"></td>
        <td id="LC71" class="blob-code blob-code-inner js-file-line">char id=66   x=36     y=51     width=13     height=15     xoffset=-2     yoffset=3    xadvance=10     page=0  chnl=0 </td>
      </tr>
      <tr>
        <td id="L72" class="blob-num js-line-number" data-line-number="72"></td>
        <td id="LC72" class="blob-code blob-code-inner js-file-line">char id=65   x=49     y=51     width=15     height=15     xoffset=-3     yoffset=3    xadvance=10     page=0  chnl=0 </td>
      </tr>
      <tr>
        <td id="L73" class="blob-num js-line-number" data-line-number="73"></td>
        <td id="LC73" class="blob-code blob-code-inner js-file-line">char id=58   x=64     y=51     width=7     height=13     xoffset=-2     yoffset=6    xadvance=4     page=0  chnl=0 </td>
      </tr>
      <tr>
        <td id="L74" class="blob-num js-line-number" data-line-number="74"></td>
        <td id="LC74" class="blob-code blob-code-inner js-file-line">char id=117   x=71     y=51     width=12     height=13     xoffset=-2     yoffset=6    xadvance=10     page=0  chnl=0 </td>
      </tr>
      <tr>
        <td id="L75" class="blob-num js-line-number" data-line-number="75"></td>
        <td id="LC75" class="blob-code blob-code-inner js-file-line">char id=115   x=83     y=51     width=11     height=13     xoffset=-3     yoffset=6    xadvance=7     page=0  chnl=0 </td>
      </tr>
      <tr>
        <td id="L76" class="blob-num js-line-number" data-line-number="76"></td>
        <td id="LC76" class="blob-code blob-code-inner js-file-line">char id=111   x=94     y=51     width=13     height=13     xoffset=-3     yoffset=6    xadvance=9     page=0  chnl=0 </td>
      </tr>
      <tr>
        <td id="L77" class="blob-num js-line-number" data-line-number="77"></td>
        <td id="LC77" class="blob-code blob-code-inner js-file-line">char id=101   x=107     y=51     width=13     height=13     xoffset=-3     yoffset=6    xadvance=9     page=0  chnl=0 </td>
      </tr>
      <tr>
        <td id="L78" class="blob-num js-line-number" data-line-number="78"></td>
        <td id="LC78" class="blob-code blob-code-inner js-file-line">char id=99   x=120     y=51     width=12     height=13     xoffset=-3     yoffset=6    xadvance=7     page=0  chnl=0 </td>
      </tr>
      <tr>
        <td id="L79" class="blob-num js-line-number" data-line-number="79"></td>
        <td id="LC79" class="blob-code blob-code-inner js-file-line">char id=97   x=132     y=51     width=12     height=13     xoffset=-3     yoffset=6    xadvance=9     page=0  chnl=0 </td>
      </tr>
      <tr>
        <td id="L80" class="blob-num js-line-number" data-line-number="80"></td>
        <td id="LC80" class="blob-code blob-code-inner js-file-line">char id=60   x=144     y=51     width=13     height=12     xoffset=-3     yoffset=5    xadvance=9     page=0  chnl=0 </td>
      </tr>
      <tr>
        <td id="L81" class="blob-num js-line-number" data-line-number="81"></td>
        <td id="LC81" class="blob-code blob-code-inner js-file-line">char id=122   x=157     y=51     width=11     height=12     xoffset=-3     yoffset=6    xadvance=7     page=0  chnl=0 </td>
      </tr>
      <tr>
        <td id="L82" class="blob-num js-line-number" data-line-number="82"></td>
        <td id="LC82" class="blob-code blob-code-inner js-file-line">char id=120   x=168     y=51     width=13     height=12     xoffset=-3     yoffset=6    xadvance=8     page=0  chnl=0 </td>
      </tr>
      <tr>
        <td id="L83" class="blob-num js-line-number" data-line-number="83"></td>
        <td id="LC83" class="blob-code blob-code-inner js-file-line">char id=119   x=181     y=51     width=17     height=12     xoffset=-3     yoffset=6    xadvance=12     page=0  chnl=0 </td>
      </tr>
      <tr>
        <td id="L84" class="blob-num js-line-number" data-line-number="84"></td>
        <td id="LC84" class="blob-code blob-code-inner js-file-line">char id=118   x=198     y=51     width=13     height=12     xoffset=-3     yoffset=6    xadvance=8     page=0  chnl=0 </td>
      </tr>
      <tr>
        <td id="L85" class="blob-num js-line-number" data-line-number="85"></td>
        <td id="LC85" class="blob-code blob-code-inner js-file-line">char id=114   x=211     y=51     width=10     height=12     xoffset=-2     yoffset=6    xadvance=6     page=0  chnl=0 </td>
      </tr>
      <tr>
        <td id="L86" class="blob-num js-line-number" data-line-number="86"></td>
        <td id="LC86" class="blob-code blob-code-inner js-file-line">char id=110   x=221     y=51     width=12     height=12     xoffset=-2     yoffset=6    xadvance=10     page=0  chnl=0 </td>
      </tr>
      <tr>
        <td id="L87" class="blob-num js-line-number" data-line-number="87"></td>
        <td id="LC87" class="blob-code blob-code-inner js-file-line">char id=109   x=233     y=51     width=17     height=12     xoffset=-2     yoffset=6    xadvance=15     page=0  chnl=0 </td>
      </tr>
      <tr>
        <td id="L88" class="blob-num js-line-number" data-line-number="88"></td>
        <td id="LC88" class="blob-code blob-code-inner js-file-line">char id=94   x=0     y=66     width=13     height=11     xoffset=-3     yoffset=3    xadvance=9     page=0  chnl=0 </td>
      </tr>
      <tr>
        <td id="L89" class="blob-num js-line-number" data-line-number="89"></td>
        <td id="LC89" class="blob-code blob-code-inner js-file-line">char id=62   x=13     y=66     width=13     height=11     xoffset=-3     yoffset=5    xadvance=9     page=0  chnl=0 </td>
      </tr>
      <tr>
        <td id="L90" class="blob-num js-line-number" data-line-number="90"></td>
        <td id="LC90" class="blob-code blob-code-inner js-file-line">char id=42   x=26     y=66     width=13     height=10     xoffset=-3     yoffset=3    xadvance=9     page=0  chnl=0 </td>
      </tr>
      <tr>
        <td id="L91" class="blob-num js-line-number" data-line-number="91"></td>
        <td id="LC91" class="blob-code blob-code-inner js-file-line">char id=43   x=39     y=66     width=13     height=10     xoffset=-3     yoffset=6    xadvance=9     page=0  chnl=0 </td>
      </tr>
      <tr>
        <td id="L92" class="blob-num js-line-number" data-line-number="92"></td>
        <td id="LC92" class="blob-code blob-code-inner js-file-line">char id=61   x=52     y=66     width=13     height=8     xoffset=-3     yoffset=7    xadvance=9     page=0  chnl=0 </td>
      </tr>
      <tr>
        <td id="L93" class="blob-num js-line-number" data-line-number="93"></td>
        <td id="LC93" class="blob-code blob-code-inner js-file-line">char id=39   x=65     y=66     width=6     height=8     xoffset=-2     yoffset=3    xadvance=3     page=0  chnl=0 </td>
      </tr>
      <tr>
        <td id="L94" class="blob-num js-line-number" data-line-number="94"></td>
        <td id="LC94" class="blob-code blob-code-inner js-file-line">char id=34   x=71     y=66     width=9     height=8     xoffset=-2     yoffset=3    xadvance=6     page=0  chnl=0 </td>
      </tr>
      <tr>
        <td id="L95" class="blob-num js-line-number" data-line-number="95"></td>
        <td id="LC95" class="blob-code blob-code-inner js-file-line">char id=44   x=80     y=66     width=8     height=7     xoffset=-3     yoffset=14    xadvance=4     page=0  chnl=0 </td>
      </tr>
      <tr>
        <td id="L96" class="blob-num js-line-number" data-line-number="96"></td>
        <td id="LC96" class="blob-code blob-code-inner js-file-line">char id=126   x=88     y=66     width=13     height=6     xoffset=-3     yoffset=8    xadvance=9     page=0  chnl=0 </td>
      </tr>
      <tr>
        <td id="L97" class="blob-num js-line-number" data-line-number="97"></td>
        <td id="LC97" class="blob-code blob-code-inner js-file-line">char id=46   x=101     y=66     width=7     height=6     xoffset=-2     yoffset=13    xadvance=4     page=0  chnl=0 </td>
      </tr>
      <tr>
        <td id="L98" class="blob-num js-line-number" data-line-number="98"></td>
        <td id="LC98" class="blob-code blob-code-inner js-file-line">char id=96   x=108     y=66     width=8     height=6     xoffset=0     yoffset=2    xadvance=9     page=0  chnl=0 </td>
      </tr>
      <tr>
        <td id="L99" class="blob-num js-line-number" data-line-number="99"></td>
        <td id="LC99" class="blob-code blob-code-inner js-file-line">char id=45   x=116     y=66     width=9     height=5     xoffset=-3     yoffset=10    xadvance=5     page=0  chnl=0 </td>
      </tr>
      <tr>
        <td id="L100" class="blob-num js-line-number" data-line-number="100"></td>
        <td id="LC100" class="blob-code blob-code-inner js-file-line">char id=95   x=125     y=66     width=13     height=4     xoffset=-4     yoffset=17    xadvance=6     page=0  chnl=0 </td>
      </tr>
      <tr>
        <td id="L101" class="blob-num js-line-number" data-line-number="101"></td>
        <td id="LC101" class="blob-code blob-code-inner js-file-line">kernings count=-1</td>
      </tr>
</table>

  </div>

</div>

<button type="button" data-facebox="#jump-to-line" data-facebox-class="linejump" data-hotkey="l" class="d-none">Jump to Line</button>
<div id="jump-to-line" style="display:none">
  <!-- </textarea> --><!-- '"` --><form accept-charset="UTF-8" action="" class="js-jump-to-line-form" method="get"><div style="margin:0;padding:0;display:inline"><input name="utf8" type="hidden" value="&#x2713;" /></div>
    <input class="form-control linejump-input js-jump-to-line-field" type="text" placeholder="Jump to line&hellip;" aria-label="Jump to line" autofocus>
    <button type="submit" class="btn">Go</button>
</form></div>

  </div>
  <div class="modal-backdrop js-touch-events"></div>
</div>


    </div>
  </div>

    </div>

        <div class="container site-footer-container">
  <div class="site-footer" role="contentinfo">
    <ul class="site-footer-links float-right">
        <li><a href="https://github.com/contact" data-ga-click="Footer, go to contact, text:contact">Contact GitHub</a></li>
      <li><a href="https://developer.github.com" data-ga-click="Footer, go to api, text:api">API</a></li>
      <li><a href="https://training.github.com" data-ga-click="Footer, go to training, text:training">Training</a></li>
      <li><a href="https://shop.github.com" data-ga-click="Footer, go to shop, text:shop">Shop</a></li>
        <li><a href="https://github.com/blog" data-ga-click="Footer, go to blog, text:blog">Blog</a></li>
        <li><a href="https://github.com/about" data-ga-click="Footer, go to about, text:about">About</a></li>

    </ul>

    <a href="https://github.com" aria-label="Homepage" class="site-footer-mark" title="GitHub">
      <svg aria-hidden="true" class="octicon octicon-mark-github" height="24" version="1.1" viewBox="0 0 16 16" width="24"><path d="M8 0C3.58 0 0 3.58 0 8c0 3.54 2.29 6.53 5.47 7.59.4.07.55-.17.55-.38 0-.19-.01-.82-.01-1.49-2.01.37-2.53-.49-2.69-.94-.09-.23-.48-.94-.82-1.13-.28-.15-.68-.52-.01-.53.63-.01 1.08.58 1.23.82.72 1.21 1.87.87 2.33.66.07-.52.28-.87.51-1.07-1.78-.2-3.64-.89-3.64-3.95 0-.87.31-1.59.82-2.15-.08-.2-.36-1.02.08-2.12 0 0 .67-.21 2.2.82.64-.18 1.32-.27 2-.27.68 0 1.36.09 2 .27 1.53-1.04 2.2-.82 2.2-.82.44 1.1.16 1.92.08 2.12.51.56.82 1.27.82 2.15 0 3.07-1.87 3.75-3.65 3.95.29.25.54.73.54 1.48 0 1.07-.01 1.93-.01 2.2 0 .21.15.46.55.38A8.013 8.013 0 0 0 16 8c0-4.42-3.58-8-8-8z"></path></svg>
</a>
    <ul class="site-footer-links">
      <li>&copy; 2016 <span title="0.08572s from github-fe117-cp1-prd.iad.github.net">GitHub</span>, Inc.</li>
        <li><a href="https://github.com/site/terms" data-ga-click="Footer, go to terms, text:terms">Terms</a></li>
        <li><a href="https://github.com/site/privacy" data-ga-click="Footer, go to privacy, text:privacy">Privacy</a></li>
        <li><a href="https://github.com/security" data-ga-click="Footer, go to security, text:security">Security</a></li>
        <li><a href="https://status.github.com/" data-ga-click="Footer, go to status, text:status">Status</a></li>
        <li><a href="https://help.github.com" data-ga-click="Footer, go to help, text:help">Help</a></li>
    </ul>
  </div>
</div>



    

    <div id="ajax-error-message" class="ajax-error-message flash flash-error">
      <svg aria-hidden="true" class="octicon octicon-alert" height="16" version="1.1" viewBox="0 0 16 16" width="16"><path d="M8.865 1.52c-.18-.31-.51-.5-.87-.5s-.69.19-.87.5L.275 13.5c-.18.31-.18.69 0 1 .19.31.52.5.87.5h13.7c.36 0 .69-.19.86-.5.17-.31.18-.69.01-1L8.865 1.52zM8.995 13h-2v-2h2v2zm0-3h-2V6h2v4z"></path></svg>
      <button type="button" class="flash-close js-flash-close js-ajax-error-dismiss" aria-label="Dismiss error">
        <svg aria-hidden="true" class="octicon octicon-x" height="16" version="1.1" viewBox="0 0 12 16" width="12"><path d="M7.48 8l3.75 3.75-1.48 1.48L6 9.48l-3.75 3.75-1.48-1.48L4.52 8 .77 4.25l1.48-1.48L6 6.52l3.75-3.75 1.48 1.48z"></path></svg>
      </button>
      You can't perform that action at this time.
    </div>


      
      <script crossorigin="anonymous" integrity="sha256-dOKIA1HONo2PClLxKnRStCK+9jl9VHfYEgIH6nnw39k=" src="https://assets-cdn.github.com/assets/frameworks-74e2880351ce368d8f0a52f12a7452b422bef6397d5477d8120207ea79f0dfd9.js"></script>
      <script async="async" crossorigin="anonymous" integrity="sha256-KlkbUaRDjHo+ObgtMRneXYiUvwmuuRSPwFdjLHoqyp8=" src="https://assets-cdn.github.com/assets/github-2a591b51a4438c7a3e39b82d3119de5d8894bf09aeb9148fc057632c7a2aca9f.js"></script>
      
      
      
      
      
      
    <div class="js-stale-session-flash stale-session-flash flash flash-warn flash-banner d-none">
      <svg aria-hidden="true" class="octicon octicon-alert" height="16" version="1.1" viewBox="0 0 16 16" width="16"><path d="M8.865 1.52c-.18-.31-.51-.5-.87-.5s-.69.19-.87.5L.275 13.5c-.18.31-.18.69 0 1 .19.31.52.5.87.5h13.7c.36 0 .69-.19.86-.5.17-.31.18-.69.01-1L8.865 1.52zM8.995 13h-2v-2h2v2zm0-3h-2V6h2v4z"></path></svg>
      <span class="signed-in-tab-flash">You signed in with another tab or window. <a href="">Reload</a> to refresh your session.</span>
      <span class="signed-out-tab-flash">You signed out in another tab or window. <a href="">Reload</a> to refresh your session.</span>
    </div>
    <div class="facebox" id="facebox" style="display:none;">
  <div class="facebox-popup">
    <div class="facebox-content" role="dialog" aria-labelledby="facebox-header" aria-describedby="facebox-description">
    </div>
    <button type="button" class="facebox-close js-facebox-close" aria-label="Close modal">
      <svg aria-hidden="true" class="octicon octicon-x" height="16" version="1.1" viewBox="0 0 12 16" width="12"><path d="M7.48 8l3.75 3.75-1.48 1.48L6 9.48l-3.75 3.75-1.48-1.48L4.52 8 .77 4.25l1.48-1.48L6 6.52l3.75-3.75 1.48 1.48z"></path></svg>
    </button>
  </div>
</div>

  </body>
</html>

