{
"ceilingData":[
  {
    "id":"1x1",
    "title":"1x1",
    "border_type":3,
    "draw_border_color":"0x907070",
    "price_coin":100,
    "price_gold":0,
    "wall_width":5,
    "wall_type":"castle",
    "model_type":"texture",
    "xspan":1,
    "yspan":1,
    "desc":""
  },
  {
    "id":"1x2",
    "title":"1x2",
    "border_type":3,
    "draw_border_color":"0x907070",
    "price_coin":100,
    "price_gold":0,
    "wall_width":5,
    "wall_type":"castle",
    "model_type":"texture",
    "xspan":1,
    "yspan":2,
    "desc":""
  },
  {
    "id":"1x3",
    "title":"1x3",
    "border_type":3,
    "draw_border_color":"0x907070",
    "price_coin":100,
    "price_gold":0,
    "wall_width":5,
    "wall_type":"castle",
    "model_type":"texture",
    "xspan":1,
    "yspan":3,
    "desc":""
  },
  {
    "id":"1x4",
    "title":"1x4",
    "border_type":3,
    "draw_border_color":"0x907070",
    "price_coin":100,
    "price_gold":0,
    "wall_width":5,
    "wall_type":"castle",
    "model_type":"texture",
    "xspan":1,
    "yspan":4,
    "desc":""
  },
  {
    "id":"2x2",
    "title":"2x2",
    "border_type":3,
    "draw_border_color":"0x907070",
    "price_coin":100,
    "price_gold":0,
    "wall_width":5,
    "wall_type":"castle",
    "model_type":"texture",
    "xspan":2,
    "yspan":2,
    "desc":""
  },
  {
    "id":"2x3",
    "title":"2x3",
    "border_type":3,
    "draw_border_color":"0x907070",
    "price_coin":100,
    "price_gold":0,
    "wall_width":5,
    "wall_type":"castle",
    "model_type":"texture",
    "xspan":2,
    "yspan":3,
    "desc":""
  },
  {
    "id":"2x4",
    "title":"2x4",
    "border_type":3,
    "draw_border_color":"0x907070",
    "price_coin":100,
    "price_gold":0,
    "wall_width":5,
    "wall_type":"castle",
    "model_type":"texture",
    "xspan":2,
    "yspan":4,
    "desc":""
  },
  {
    "id":"3x3",
    "title":"3x3",
    "border_type":3,
    "draw_border_color":"0x907070",
    "price_coin":100,
    "price_gold":0,
    "wall_width":5,
    "wall_type":"castle",
    "model_type":"texture",
    "xspan":3,
    "yspan":3,
    "desc":""
  },
  {
    "id":"4x4",
    "title":"4x4",
    "border_type":3,
    "draw_border_color":"0x907070",
    "price_coin":100,
    "price_gold":0,
    "wall_width":5,
    "wall_type":"castle",
    "model_type":"texture",
    "xspan":4,
    "yspan":4,
    "desc":""
  }
]
}
